[
  {
    "id": 1,
    "authorId": 5,
    "teamId": 6,
    "name": "open architecture Outdoors, Grocery & Baby Dynamic",
    "description": "Repellendus expedita dolorum saepe ut culpa nobis sunt itaque labore.",
    "deadline": "2021-08-03T01:08:10.3228394+00:00",
    "createdAt": "2019-07-17T06:42:48.376246+00:00"
  },
  {
    "id": 2,
    "authorId": 6,
    "teamId": 3,
    "name": "backing up Handcrafted Fresh Shoes challenge",
    "description": "Et doloribus et temporibus.",
    "deadline": "2021-09-12T19:17:47.2335223+00:00",
    "createdAt": "2020-08-25T17:49:50.4518054+00:00"
  },
  {
    "id": 3,
    "authorId": 7,
    "teamId": 4,
    "name": "Village",
    "description": "Non voluptatem voluptas libero.",
    "deadline": "2021-07-24T12:07:31.9357846+00:00",
    "createdAt": "2021-01-30T14:38:53.8838745+00:00"
  },
  {
    "id": 4,
    "authorId": 10,
    "teamId": 1,
    "name": "Dam",
    "description": "Quia et tempora hic pariatur voluptatem doloribus sunt.",
    "deadline": "2021-07-21T08:32:51.3354654+00:00",
    "createdAt": "2020-03-15T20:33:15.6731141+00:00"
  },
  {
    "id": 5,
    "authorId": 9,
    "teamId": 1,
    "name": "iterate project",
    "description": "Soluta non sed assumenda.",
    "deadline": "2021-06-25T11:25:00.7111264+00:00",
    "createdAt": "2019-07-03T03:39:01.9978679+00:00"
  },
  {
    "id": 6,
    "authorId": 8,
    "teamId": 2,
    "name": "Libyan Dinar Netherlands Antilles",
    "description": "Voluptatibus error ut id libero quam natus molestias natus.",
    "deadline": "2021-09-14T02:53:20.8003038+00:00",
    "createdAt": "2021-03-15T19:47:35.9335401+00:00"
  }
]